%YAML 1.1
%TAG !u! tag:unity3d.com,2011:
--- !u!1001 &6988199009262944066
PrefabInstance:
  m_ObjectHideFlags: 0
  serializedVersion: 2
  m_Modification:
    m_TransformParent: {fileID: 0}
    m_Modifications:
    - target: {fileID: 1033432446244449561, guid: f2af40d6c6c5e794c820c40efba48870, type: 3}
      propertyPath: m_Name
      value: Pickup_Shotgun
      objectReference: {fileID: 0}
    - target: {fileID: 1033432446244449562, guid: f2af40d6c6c5e794c820c40efba48870, type: 3}
      propertyPath: m_RootOrder
      value: 0
      objectReference: {fileID: 0}
    - target: {fileID: 1033432446244449562, guid: f2af40d6c6c5e794c820c40efba48870, type: 3}
      propertyPath: m_LocalPosition.x
      value: -5.8594646
      objectReference: {fileID: 0}
    - target: {fileID: 1033432446244449562, guid: f2af40d6c6c5e794c820c40efba48870, type: 3}
      propertyPath: m_LocalPosition.y
      value: 2.245345
      objectReference: {fileID: 0}
    - target: {fileID: 1033432446244449562, guid: f2af40d6c6c5e794c820c40efba48870, type: 3}
      propertyPath: m_LocalPosition.z
      value: 0
      objectReference: {fileID: 0}
    - target: {fileID: 1033432446244449562, guid: f2af40d6c6c5e794c820c40efba48870, type: 3}
      propertyPath: m_LocalRotation.w
      value: 1
      objectReference: {fileID: 0}
    - target: {fileID: 1033432446244449562, guid: f2af40d6c6c5e794c820c40efba48870, type: 3}
      propertyPath: m_LocalRotation.x
      value: 0
      objectReference: {fileID: 0}
    - target: {fileID: 1033432446244449562, guid: f2af40d6c6c5e794c820c40efba48870, type: 3}
      propertyPath: m_LocalRotation.y
      value: 0
      objectReference: {fileID: 0}
    - target: {fileID: 1033432446244449562, guid: f2af40d6c6c5e794c820c40efba48870, type: 3}
      propertyPath: m_LocalRotation.z
      value: 0
      objectReference: {fileID: 0}
    - target: {fileID: 1033432446244449562, guid: f2af40d6c6c5e794c820c40efba48870, type: 3}
      propertyPath: m_LocalEulerAnglesHint.x
      value: 0
      objectReference: {fileID: 0}
    - target: {fileID: 1033432446244449562, guid: f2af40d6c6c5e794c820c40efba48870, type: 3}
      propertyPath: m_LocalEulerAnglesHint.y
      value: 0
      objectReference: {fileID: 0}
    - target: {fileID: 1033432446244449562, guid: f2af40d6c6c5e794c820c40efba48870, type: 3}
      propertyPath: m_LocalEulerAnglesHint.z
      value: 0
      objectReference: {fileID: 0}
    - target: {fileID: 1033432446244449563, guid: f2af40d6c6c5e794c820c40efba48870, type: 3}
      propertyPath: m_Sprite
      value: 
      objectReference: {fileID: 21300000, guid: a4d5b2d94ac9b254da8065f11abe446f, type: 3}
    - target: {fileID: 5237581826200709848, guid: f2af40d6c6c5e794c820c40efba48870, type: 3}
      propertyPath: m_SpriteTilingProperty.oldSize.x
      value: 3.9
      objectReference: {fileID: 0}
    - target: {fileID: 5237581826200709848, guid: f2af40d6c6c5e794c820c40efba48870, type: 3}
      propertyPath: m_SpriteTilingProperty.oldSize.y
      value: 1.2
      objectReference: {fileID: 0}
    - target: {fileID: 8308487467900897916, guid: f2af40d6c6c5e794c820c40efba48870, type: 3}
      propertyPath: Weapon_Prefab
      value: 
      objectReference: {fileID: 7207154661129137286, guid: af75ee4923b7db74e82c856a2636667d, type: 3}
    m_RemovedComponents: []
  m_SourcePrefab: {fileID: 100100000, guid: f2af40d6c6c5e794c820c40efba48870, type: 3}
